<svg xmlns="http://www.w3.org/2000/svg" xmlns:xlink="http://www.w3.org/1999/xlink" width="160.305" height="150.337" viewBox="0 0 160.305 150.337">
  <defs>
    <linearGradient id="linear-gradient" x1="0.5" y1="1" x2="0.5" gradientUnits="objectBoundingBox">
      <stop offset="0" stop-color="gray" stop-opacity="0.251"/>
      <stop offset="0.54" stop-color="gray" stop-opacity="0.122"/>
      <stop offset="1" stop-color="gray" stop-opacity="0.102"/>
    </linearGradient>
  </defs>
  <g id="gift-2" transform="translate(0 0.113)">
    <g id="Group_1" data-name="Group 1" transform="translate(18.594 6.979)" opacity="0.5">
      <rect id="Rectangle_1" data-name="Rectangle 1" width="0.622" height="3.525" transform="translate(1.452)" fill="#47e6b1"/>
      <rect id="Rectangle_2" data-name="Rectangle 2" width="0.622" height="3.525" transform="translate(3.525 1.452) rotate(90)" fill="#47e6b1"/>
    </g>
    <g id="Group_2" data-name="Group 2" transform="translate(150.182 143.671)" opacity="0.5">
      <rect id="Rectangle_3" data-name="Rectangle 3" width="0.622" height="3.525" transform="translate(1.452)" fill="#47e6b1"/>
      <rect id="Rectangle_4" data-name="Rectangle 4" width="0.622" height="3.525" transform="translate(3.525 1.452) rotate(90)" fill="#47e6b1"/>
    </g>
    <g id="Group_3" data-name="Group 3" transform="translate(150.428 40.138)" opacity="0.5">
      <rect id="Rectangle_5" data-name="Rectangle 5" width="0.622" height="3.525" transform="translate(1.452)" fill="#47e6b1"/>
      <rect id="Rectangle_6" data-name="Rectangle 6" width="0.622" height="3.525" transform="translate(3.525 1.452) rotate(90)" fill="#47e6b1"/>
    </g>
    <g id="Group_4" data-name="Group 4" transform="translate(156.78 8.378)" opacity="0.5">
      <rect id="Rectangle_7" data-name="Rectangle 7" width="0.622" height="3.525" transform="translate(1.452)" fill="#47e6b1"/>
      <rect id="Rectangle_8" data-name="Rectangle 8" width="0.622" height="3.525" transform="translate(3.525 1.452) rotate(90)" fill="#47e6b1"/>
    </g>
    <g id="Group_5" data-name="Group 5" transform="translate(48.442 6.684)" opacity="0.5">
      <rect id="Rectangle_9" data-name="Rectangle 9" width="0.622" height="3.525" transform="translate(1.453)" fill="#47e6b1"/>
      <rect id="Rectangle_10" data-name="Rectangle 10" width="0.622" height="3.525" transform="translate(3.525 1.452) rotate(90)" fill="#47e6b1"/>
    </g>
    <path id="Path_1" data-name="Path 1" d="M219.256,351.64a.762.762,0,0,1-.424-.921.373.373,0,0,0,.017-.084h0a.374.374,0,0,0-.686-.254h0a.374.374,0,0,0-.043.075.762.762,0,0,1-.921.424.376.376,0,0,0-.084-.017h0a.374.374,0,0,0-.254.686h0a.372.372,0,0,0,.075.043.762.762,0,0,1,.424.921.374.374,0,0,0-.017.084h0a.374.374,0,0,0,.686.254h0a.374.374,0,0,0,.043-.075.762.762,0,0,1,.921-.424.374.374,0,0,0,.084.017h0a.374.374,0,0,0,.254-.686h0A.375.375,0,0,0,219.256,351.64Z" transform="translate(-207.821 -292.287)" fill="#4d8af0" opacity="0.5"/>
    <path id="Path_2" data-name="Path 2" d="M280.736,729.98a.762.762,0,0,1-.424-.921.374.374,0,0,0,.017-.084h0a.374.374,0,0,0-.686-.254h0a.378.378,0,0,0-.043.075.762.762,0,0,1-.921.424.376.376,0,0,0-.084-.017h0a.374.374,0,0,0-.254.686h0a.375.375,0,0,0,.075.043.762.762,0,0,1,.424.921.374.374,0,0,0-.017.084h0a.374.374,0,0,0,.686.254h0a.377.377,0,0,0,.043-.075.762.762,0,0,1,.921-.424.376.376,0,0,0,.084.017h0a.374.374,0,0,0,.254-.686h0A.373.373,0,0,0,280.736,729.98Z" transform="translate(-257.815 -599.946)" fill="#4d8af0" opacity="0.5"/>
    <path id="Path_3" data-name="Path 3" d="M839.736,228.98a.762.762,0,0,1-.424-.921.373.373,0,0,0,.017-.084h0a.374.374,0,0,0-.686-.254h0a.375.375,0,0,0-.043.075.762.762,0,0,1-.921.424.372.372,0,0,0-.084-.017h0a.374.374,0,0,0-.254.686h0a.372.372,0,0,0,.075.043.762.762,0,0,1,.424.921.37.37,0,0,0-.017.084h0a.374.374,0,0,0,.686.254h0a.376.376,0,0,0,.043-.075.762.762,0,0,1,.921-.424.373.373,0,0,0,.084.017h0a.374.374,0,0,0,.254-.686h0A.372.372,0,0,0,839.736,228.98Z" transform="translate(-712.384 -192.542)" fill="#4d8af0" opacity="0.5"/>
    <path id="Path_4" data-name="Path 4" d="M832.286,319.37a.762.762,0,0,1-.424-.921.373.373,0,0,0,.017-.084h0a.374.374,0,0,0-.686-.254h0a.376.376,0,0,0-.043.075.762.762,0,0,1-.921.424.377.377,0,0,0-.084-.017h0a.374.374,0,0,0-.254.686h0a.371.371,0,0,0,.075.043.762.762,0,0,1,.424.921.373.373,0,0,0-.017.084h0a.374.374,0,0,0,.686.254h0a.376.376,0,0,0,.043-.075.762.762,0,0,1,.921-.424.375.375,0,0,0,.084.017h0a.374.374,0,0,0,.254-.686h0A.371.371,0,0,0,832.286,319.37Z" transform="translate(-706.326 -266.045)" fill="#4d8af0" opacity="0.5"/>
    <path id="Path_5" data-name="Path 5" d="M832.824,41a.762.762,0,0,1-.424-.921.376.376,0,0,0,.017-.084h0a.374.374,0,0,0-.686-.254h0a.375.375,0,0,0-.043.075.762.762,0,0,1-.919.426.374.374,0,0,0-.084-.017h0a.374.374,0,0,0-.254.686h0a.371.371,0,0,0,.075.043.762.762,0,0,1,.424.921.376.376,0,0,0-.017.084h0a.374.374,0,0,0,.686.254h0a.372.372,0,0,0,.043-.075.762.762,0,0,1,.914-.435.374.374,0,0,0,.084.017h0a.374.374,0,0,0,.254-.686h0A.375.375,0,0,0,832.824,41Z" transform="translate(-706.765 -39.68)" fill="#4d8af0" opacity="0.5"/>
    <path id="Path_6" data-name="Path 6" d="M1000.976,498.04a.762.762,0,0,1-.424-.921.369.369,0,0,0,.017-.084h0a.374.374,0,0,0-.686-.254h0a.373.373,0,0,0-.043.075.762.762,0,0,1-.921.424.373.373,0,0,0-.084-.017h0a.374.374,0,0,0-.254.686h0a.372.372,0,0,0,.075.043.762.762,0,0,1,.422.93.374.374,0,0,0-.017.084h0a.374.374,0,0,0,.686.254h0a.371.371,0,0,0,.043-.075.762.762,0,0,1,.921-.424.373.373,0,0,0,.084.017h0a.374.374,0,0,0,.254-.686h0A.378.378,0,0,0,1000.976,498.04Z" transform="translate(-843.501 -411.336)" fill="#4d8af0" opacity="0.5"/>
    <circle id="Ellipse_1" data-name="Ellipse 1" cx="1.244" cy="1.244" r="1.244" transform="translate(10.296 29.698)" fill="#f55f44" opacity="0.5"/>
    <circle id="Ellipse_2" data-name="Ellipse 2" cx="1.244" cy="1.244" r="1.244" transform="translate(1.173 119.055)" fill="#f55f44" opacity="0.5"/>
    <circle id="Ellipse_3" data-name="Ellipse 3" cx="1.244" cy="1.244" r="1.244" transform="translate(80.893 7.198)" fill="#f55f44" opacity="0.5"/>
    <circle id="Ellipse_4" data-name="Ellipse 4" cx="1.244" cy="1.244" r="1.244" transform="translate(93.409 30.924)" fill="#f55f44" opacity="0.5"/>
    <circle id="Ellipse_5" data-name="Ellipse 5" cx="1.244" cy="1.244" r="1.244" transform="translate(0 88.09)" fill="#f55f44" opacity="0.5"/>
    <circle id="Ellipse_6" data-name="Ellipse 6" cx="1.244" cy="1.244" r="1.244" transform="translate(48.73 27.684)" fill="#47e6b1" opacity="0.5"/>
    <circle id="Ellipse_7" data-name="Ellipse 7" cx="1.244" cy="1.244" r="1.244" transform="translate(134.311 110.335)" fill="#f55f44" opacity="0.5"/>
    <g id="Group_6" data-name="Group 6" transform="translate(53.674 36.649)" opacity="0.5">
      <path id="Path_7" data-name="Path 7" d="M504.593,239.6c-2.41-2.417-5.924-3.38-9.9-2.709a19.8,19.8,0,0,0-10.462,5.666,12.235,12.235,0,0,0-2.19,3,12.262,12.262,0,0,0-2.171-3.112h0A19.884,19.884,0,0,0,469.5,236.6c-3.959-.747-7.488.161-9.939,2.537s-3.465,5.875-2.849,9.847a19.784,19.784,0,0,0,5.515,10.553c6.273,6.471,18.792,3.944,19.323,3.832l.157-.032.482.11c.529.12,13,2.862,19.382-3.5a19.851,19.851,0,0,0,5.7-10.451C507.954,245.531,507,242.013,504.593,239.6Zm-25.163,20.036c-3.025.407-10.565.96-14.308-2.9a15.805,15.805,0,0,1-4.429-8.36c-.411-2.653.187-4.908,1.67-6.352a5.592,5.592,0,0,1,2.04-1.25,8.4,8.4,0,0,1,4.357-.22,15.83,15.83,0,0,1,8.22,4.689C480.723,249.108,479.931,256.628,479.431,259.632ZM503.3,248.81a15.8,15.8,0,0,1-4.573,8.282c-3.811,3.8-11.34,3.114-14.355,2.655-.45-3.019-1.11-10.55,2.7-14.348a15.813,15.813,0,0,1,8.3-4.547,8.437,8.437,0,0,1,4.353.3,5.592,5.592,0,0,1,2.018,1.285c1.463,1.474,2.018,3.738,1.562,6.382Z" transform="translate(-456.537 -236.344)" fill="url(#linear-gradient)"/>
    </g>
    <path id="Path_8" data-name="Path 8" d="M487.5,265.206l-1.192.252c-.506.106-12.485,2.524-18.5-3.667a19,19,0,0,1-5.28-10.088c-.588-3.807.374-7.157,2.724-9.431s5.724-3.135,9.511-2.429a18.982,18.982,0,0,1,9.922,5.593h0c6,6.193,3.21,18.09,3.086,18.592Zm-17.6-21.37a5.351,5.351,0,0,0-1.952,1.2c-1.424,1.379-1.991,3.536-1.6,6.075a15.124,15.124,0,0,0,4.239,8c3.581,3.7,10.8,3.176,13.69,2.776.48-2.879,1.235-10.075-2.346-13.77h0a15.1,15.1,0,0,0-7.863-4.484A8.02,8.02,0,0,0,469.9,243.836Z" transform="translate(-407.604 -202.346)" fill="#ff63d0"/>
    <path id="Path_9" data-name="Path 9" d="M583.486,266.623l-.271-1.188c-.114-.506-2.7-12.45,3.408-18.536h0a18.96,18.96,0,0,1,10.017-5.418c3.8-.643,7.161.278,9.468,2.591s3.215,5.679,2.561,9.475a19.046,19.046,0,0,1-5.453,10c-6.1,6.077-18.037,3.462-18.544,3.346Zm17.966-21.064a8.058,8.058,0,0,0-4.164-.284,15.09,15.09,0,0,0-7.94,4.351h0c-3.645,3.634-3.015,10.836-2.584,13.729,2.886.439,10.088,1.095,13.737-2.541a15.128,15.128,0,0,0,4.377-7.925c.437-2.531-.093-4.7-1.495-6.1a5.35,5.35,0,0,0-1.934-1.229Z" transform="translate(-505.355 -203.711)" fill="#ff63d0"/>
    <g id="Group_7" data-name="Group 7" transform="translate(20.402 59.729)" opacity="0.5">
      <path id="Path_10" data-name="Path 10" d="M225.348,320.21H109.21v23.238h6.034v67.257H219.314V343.448h6.034Z" transform="translate(-109.21 -320.21)" fill="url(#linear-gradient)"/>
    </g>
    <rect id="Rectangle_11" data-name="Rectangle 11" width="101.435" height="82.325" transform="translate(27.754 66.756)" fill="#f5f5f5"/>
    <rect id="Rectangle_12" data-name="Rectangle 12" width="19.112" height="67.625" transform="translate(68.916 81.456)" fill="#ff63d0"/>
    <rect id="Rectangle_13" data-name="Rectangle 13" width="101.435" height="20.582" transform="translate(27.754 62.345)" opacity="0.1"/>
    <rect id="Rectangle_14" data-name="Rectangle 14" width="113.195" height="20.582" transform="translate(21.873 60.874)" fill="#f5f5f5"/>
    <rect id="Rectangle_15" data-name="Rectangle 15" width="19.112" height="20.582" transform="translate(68.916 60.874)" fill="#ff63d0"/>
    <ellipse id="Ellipse_9" data-name="Ellipse 9" cx="0.426" cy="0.747" rx="0.426" ry="0.747" transform="translate(103.675 34.748)" fill="#fda57d"/>
    <path id="Path_32" data-name="Path 32" d="M544.67,238.511l.213-.641.639.428Z" transform="translate(-442.915 -193.523)" opacity="0.1"/>
    <path id="Path_33" data-name="Path 33" d="M775.1,297.85s-2.322,1.121-2.963,2.18" transform="translate(-659.505 -249.711)" opacity="0.1"/>
    <path id="Path_34" data-name="Path 34" d="M610.381,220.75l-.213.639-.428-.639Z" transform="translate(-495.829 -179.602)" opacity="0.1"/>
  </g>
</svg>
